<?xml version="1.0" encoding="UTF-8" standalone="no"?>
<!DOCTYPE svg PUBLIC "-//W3C//DTD SVG 1.1//EN" "http://www.w3.org/Graphics/SVG/1.1/DTD/svg11.dtd">
<svg width="100%" height="100%" viewBox="0 0 3000 2625" version="1.1" xmlns="http://www.w3.org/2000/svg"
     xmlns:xlink="http://www.w3.org/1999/xlink" xml:space="preserve" xmlns:serif="http://www.serif.com/"
     style="fill-rule:evenodd;clip-rule:evenodd;stroke-linejoin:round;stroke-miterlimit:1.41421;">
    <g id="execom-logo-mobile" transform="matrix(125,0,0,125,0,0)">
        <path id="Fill-1"
              d="M5.2,3.6C2.5,3.6 0.5,5.6 0,8.6C0,8.8 0.1,8.9 0.3,8.9L10.1,8.9C10.3,8.9 10.4,8.8 10.4,8.6C9.9,5.7 8.2,3.6 5.2,3.6"
              style="fill:rgb(251,75,79);"/>
        <path id="Fill-3"
              d="M16.6,1.1C16,0.4 15.4,0 14.5,0C13.4,0 12.4,0.8 12.4,2.1C12.4,2.6 12.6,3.1 12.9,3.6C14.2,5.4 14.9,7.7 14.9,9.8C14.9,11.1 13.9,12 12.7,12L0.3,12C0.1,12 0,12.2 0,12.3C0.6,15.4 2.9,17.1 5.8,17.1C7.8,17.1 9.3,16.4 10.6,15.3C10.9,15 11.3,14.9 11.8,14.9C12.8,14.9 13.6,15.7 13.6,16.8C13.6,17.4 13.3,17.9 13,18.2C12.8,18.4 12.6,18.5 12.4,18.7C12.1,18.9 12.1,19.2 12.2,19.5C12.5,20.2 13.3,20.7 14.2,20.7C15,20.7 15.7,20.2 16.2,19.5L22.7,11.1C23.2,10.5 23.2,9.6 22.7,9L16.6,1.1Z"
              style="fill:rgb(251,75,79);"/>
    </g>
</svg>
