<?xml version="1.0" encoding="UTF-8" standalone="no"?><!DOCTYPE svg PUBLIC "-//W3C//DTD SVG 1.1//EN"
        "http://www.w3.org/Graphics/SVG/1.1/DTD/svg11.dtd">
<svg width="100%" height="100%" viewBox="0 0 64 64" version="1.1" xmlns="http://www.w3.org/2000/svg"
     xmlns:xlink="http://www.w3.org/1999/xlink" xml:space="preserve" xmlns:serif="http://www.serif.com/"
     style="fill-rule:evenodd;clip-rule:evenodd;stroke-linejoin:round;stroke-miterlimit:1.41421;"><path id="home-dashboard" serif:id="home dashboard" d="M62.667,33.952l-7.667,0.001l0,28.711l-17.942,0l0,-19.689l-10.116,0l0,19.689l-17.942,0l0,-28.711l-7.667,0.001l30.707,-32.618l30.627,32.616Zm-52.208,-3.912l2.454,0l0,28.71l10.116,0l0,-19.688l17.942,0l0,19.688l10.116,0l0,-28.71l2.536,0.001l-21.583,-22.989l-21.581,22.988Z" style="fill:#fff;fill-rule:nonzero;"/></svg>