<?xml version="1.0" encoding="UTF-8" standalone="no"?>
<!DOCTYPE svg PUBLIC "-//W3C//DTD SVG 1.1//EN" "http://www.w3.org/Graphics/SVG/1.1/DTD/svg11.dtd">
<svg width="100%" height="100%" viewBox="0 0 20 20" version="1.1" xmlns="http://www.w3.org/2000/svg" xmlns:xlink="http://www.w3.org/1999/xlink" xml:space="preserve" xmlns:serif="http://www.serif.com/" style="fill-rule:evenodd;clip-rule:evenodd;stroke-linejoin:round;stroke-miterlimit:1.41421;">
    <rect id="Artboard1" x="0" y="0" width="20" height="20" style="fill:none;"/>
    <g transform="matrix(0.035195,0,0,0.0340951,1.74094,1.99905)">
        <g>
            <path id="edit-icon" serif:id="edit icon" d="M438.931,30.403C398.531,-10.097 332.831,-10.097 292.431,30.403L23.831,298.903C21.731,301.003 20.431,303.703 20.031,306.603L0.131,454.003C-0.469,458.203 1.031,462.403 3.931,465.303C6.431,467.803 9.931,469.303 13.431,469.303C14.031,469.303 14.631,469.303 15.231,469.203L102.569,457.521C109.969,456.521 117.143,446.924 115.825,438.316C114.695,430.935 107.037,421.926 96.617,423.244L38.371,430.863L49.966,344.038L151.331,445.403C153.831,447.903 157.331,449.403 160.831,449.403C164.331,449.403 167.831,448.003 170.331,445.403L438.931,176.903C458.531,157.303 469.331,131.303 469.331,103.603C469.331,75.903 458.531,49.903 438.931,30.403ZM297.5,74.338L333.924,110.762L99.622,345.064L63.128,308.569L297.5,74.338ZM160.691,406.133L124.151,369.593L358.523,135.361L395.064,171.902L160.691,406.133ZM419.697,147.269L322.133,49.705C340.105,31.386 377.911,13.105 417.531,51.803C456.099,89.473 439.987,126.416 419.697,147.269Z" style="fill:rgb(251,75,79);fill-rule:nonzero;"/>
        </g>
    </g>
    <g id="g4446-9-6-7">
    </g>
</svg>
