<?xml version="1.0" encoding="UTF-8" standalone="no"?>
<!DOCTYPE svg PUBLIC "-//W3C//DTD SVG 1.1//EN" "http://www.w3.org/Graphics/SVG/1.1/DTD/svg11.dtd">
<svg width="100%" height="100%" viewBox="0 0 20 20" version="1.1" xmlns="http://www.w3.org/2000/svg" xmlns:xlink="http://www.w3.org/1999/xlink" xml:space="preserve" xmlns:serif="http://www.serif.com/" style="fill-rule:evenodd;clip-rule:evenodd;stroke-linejoin:round;stroke-miterlimit:1.41421;">
    <rect id="Artboard1" x="0" y="0" width="20" height="20" style="fill:none;"/>
    <g id="Artboard11" serif:id="Artboard1">
        <g transform="matrix(1,0,0,1,-3894.92,-2987.71)">
            <g transform="matrix(0.219512,0,0,0.666667,3197.87,2711.38)">
                <path class="circle" d="M3262,429.5C3262,422.049 3243.63,416 3221,416C3198.37,416 3180,422.049 3180,429.5C3180,436.951 3198.37,443 3221,443C3243.63,443 3262,436.951 3262,429.5Z"/>
            </g>
            <g id="rect3755-9-6-8-8-2" transform="matrix(1.41476,1.17192e-16,-8.80043e-17,1.94426,2425.2,3013.25)">
                <rect x="1042.74" y="-8.509" width="6.361" height="1.029" style="fill:white;"/>
            </g>
        </g>
    </g>
</svg>
