<?xml version="1.0" encoding="UTF-8" standalone="no"?><!DOCTYPE svg PUBLIC "-//W3C//DTD SVG 1.1//EN"
        "http://www.w3.org/Graphics/SVG/1.1/DTD/svg11.dtd">
<svg width="100%" height="100%" viewBox="0 0 64 64" version="1.1" xmlns="http://www.w3.org/2000/svg"
     xmlns:xlink="http://www.w3.org/1999/xlink" xml:space="preserve" xmlns:serif="http://www.serif.com/"
     style="fill-rule:evenodd;clip-rule:evenodd;stroke-linejoin:round;stroke-miterlimit:1.41421;"><rect x="0" y="0" width="64" height="64" style="fill:#ff5de3;fill-opacity:0;"/>
    <path id="icon-calendar" serif:id="icon calendar"
          d="M55.931,62.667l-47.862,0c-3.717,0 -6.736,-2.721 -6.736,-6.072l0,-43.054c0,-3.351 3.018,-6.072 6.736,-6.072l5.363,0l0,-6.136l3.913,0l0,6.136l29.31,0l0,-6.136l3.913,0l0,6.136l5.363,0c3.718,0.001 6.736,2.721 6.736,6.072l0,43.054c0,3.351 -3.018,6.072 -6.736,6.072Zm2.823,-38.118l-53.535,0l0,30.132c0,2.248 2.025,4.073 4.519,4.073l44.497,0c2.494,0 4.519,-1.825 4.519,-4.073l0,-30.132Zm-38.408,15.118l-10.223,0l0,-10.223l10.223,0l0,10.223Zm15.333,0l-10.222,0l0,-10.223l10.222,0l0,10.223Zm15.333,0l-10.222,0l0,-10.223l10.222,0l0,10.223Z"
          style="fill:#fff;fill-rule:nonzero;"/></svg>